<svg xmlns="http://www.w3.org/2000/svg" xmlns:xlink="http://www.w3.org/1999/xlink" version="1.1" width="256" height="256" viewBox="0 0 256 256" xml:space="preserve">

<defs>
</defs>
<g style="stroke: none; stroke-width: 0; stroke-dasharray: none; stroke-linecap: butt; stroke-linejoin: miter; stroke-miterlimit: 10; fill: none; fill-rule: nonzero; opacity: 1;" transform="translate(1.4065934065934016 1.4065934065934016) scale(2.81 2.81)" >
	<path d="M 45 88.237 L 45 88.237 c -0.796 0 -1.559 -0.316 -2.122 -0.879 L 7.856 52.334 C -2.618 41.861 -2.619 24.819 7.855 14.344 C 18.052 4.147 34.475 3.879 45 13.534 c 10.527 -9.655 26.948 -9.386 37.145 0.81 c 0 0 0 0 0 0 c 10.473 10.474 10.473 27.517 -0.001 37.991 L 47.122 87.358 C 46.559 87.921 45.796 88.237 45 88.237 z M 26.85 12.487 c -5.342 0 -10.685 2.034 -14.752 6.1 c -8.133 8.135 -8.133 21.369 0.001 29.504 L 45 80.992 l 32.901 -32.9 c 8.133 -8.135 8.133 -21.37 0.001 -29.505 c -8.135 -8.133 -21.37 -8.133 -29.504 0 l -1.277 1.277 c -1.172 1.172 -3.073 1.171 -4.243 0 l -1.276 -1.276 C 37.535 14.521 32.193 12.487 26.85 12.487 z" style="stroke: none; stroke-width: 1; stroke-dasharray: none; stroke-linecap: butt; stroke-linejoin: miter; stroke-miterlimit: 10; fill: rgb(0,0,0); fill-rule: nonzero; opacity: 1;" transform=" matrix(1 0 0 1 0 0) " stroke-linecap="round" />
	<path d="M 45 57.683 L 45 57.683 c -0.796 0 -1.559 -0.316 -2.122 -0.879 l -11.199 -11.2 c -1.172 -1.172 -1.172 -3.072 0 -4.244 c 1.171 -1.172 3.072 -1.171 4.244 0 L 45 50.437 l 22.838 -22.837 c 1.172 -1.172 3.071 -1.172 4.243 0 c 1.172 1.172 1.172 3.072 0 4.243 L 47.122 56.804 C 46.559 57.366 45.796 57.683 45 57.683 z" style="stroke: none; stroke-width: 1; stroke-dasharray: none; stroke-linecap: butt; stroke-linejoin: miter; stroke-miterlimit: 10; fill: rgb(0,0,0); fill-rule: nonzero; opacity: 1;" transform=" matrix(1 0 0 1 0 0) " stroke-linecap="round" />
</g>
</svg>